<?xml version="1.0" encoding="UTF-8" standalone="no"?>
<!-- Created with Inkscape (http://www.inkscape.org/) -->

<svg xmlns:dc="http://purl.org/dc/elements/1.1/" xmlns:cc="http://creativecommons.org/ns#"
    xmlns:rdf="http://www.w3.org/1999/02/22-rdf-syntax-ns#" xmlns:svg="http://www.w3.org/2000/svg"
    xmlns="http://www.w3.org/2000/svg" xmlns:sodipodi="http://sodipodi.sourceforge.net/DTD/sodipodi-0.dtd"
    xmlns:inkscape="http://www.inkscape.org/namespaces/inkscape" id="svg4165" version="1.1"
    inkscape:version="0.91 r13725" width="50" height="50" viewBox="0 0 50 50" sodipodi:docname="Madurai_Pol.svg">
    <metadata id="metadata4171">
        <rdf:RDF>
            <cc:Work rdf:about="">
                <dc:format>image/svg+xml</dc:format>
                <dc:type rdf:resource="http://purl.org/dc/dcmitype/StillImage" />
                <dc:title></dc:title>
            </cc:Work>
        </rdf:RDF>
    </metadata>
    <defs id="defs4169" />
    <sodipodi:namedview pagecolor="#ffffff" bordercolor="#666666" borderopacity="1" objecttolerance="10"
        gridtolerance="10" guidetolerance="10" inkscape:pageopacity="0" inkscape:pageshadow="2"
        inkscape:window-width="1366" inkscape:window-height="706" id="namedview4167" showgrid="false"
        inkscape:zoom="4.72" inkscape:cx="25" inkscape:cy="25" inkscape:window-x="-8" inkscape:window-y="-8"
        inkscape:window-maximized="1" inkscape:current-layer="svg4165" />
    <path
        style="fill:#ffffff;fill-opacity:1;fill-rule:evenodd;stroke:#000000;stroke-width:1px;stroke-linecap:butt;stroke-linejoin:miter;stroke-opacity:1"
        d="m 10.59322,45.127118 0.635593,-29.449152 c 0,0 -2.3305077,-2.542373 -5.5084737,-4.025424 C 13.559322,8.2627119 19.915254,4.8728813 19.915254,4.8728813 l 0.211865,18.6440677 c 8.68644,-6.991526 16.313559,-13.9830507 16.313559,-13.9830507 5.932204,-1.2711865 9.322034,5.2966097 9.322034,5.2966097 0,0 -26.483051,7.415255 -35.169492,30.29661 z"
        id="path4715" inkscape:connector-curvature="0" sodipodi:nodetypes="cccccccc" />
</svg>